{
"Status":200,
"Message":"Success",
"data":{
    "TotalRecords":7,
    "Records":[
                 {
                 "Id":1,
                 "title":"Smile Crowdfunding",
                 "shortDescription":"This foundation will bring smile on there faces",
                 "collectedValue":500,
                 "totalValue":5000,
                 "startDate":"05/05/2018",
                 "endDate":"10/06/2018",
                 "mainImageURL":"https://testffc.nimapinfotech.com/testdatajson/project10.jpg"
                 },
                 {
                 "Id":2,
                 "title":"Animal Funding",
                 "shortDescription":"This foundation will help animals",
                 "collectedValue":200,
                 "totalValue":10000,
                "startDate":"10/05/2018",
                "endDate":"11/06/2018",
                 "mainImageURL":"https://testffc.nimapinfotech.com/testdatajson/project2.jpg"
                 },
                 {
                 "Id":3,
                 "title":"Children Funding",
                 "shortDescription":"This foundation will bring smile on there faces",
                 "collectedValue":440,
                 "totalValue":4000,
                 "startDate":"25/05/2018",
                 "endDate":"15/06/2018",
                 "mainImageURL":"https://testffc.nimapinfotech.com/testdatajson/project3.jpg"
                 },
                 {
                 "Id":4,
                 "title":"Old Age Home Funding",
                 "shortDescription":"This foundation will help old age people",
                 "collectedValue":500,
                 "totalValue":10000,
                 "startDate":"23/05/2018",
                 "endDate":"13/06/2018",
                 "mainImageURL":"https://testffc.nimapinfotech.com/testdatajson/project4.jpg"
                 },
                 {
                 "Id":5,
                 "title":"Smile Crowdfunding",
                 "shortDescription":"This foundation will bring smile on there faces",
                 "collectedValue":2000,
                 "totalValue":50000,
                 "startDate":"05/05/2018",
                 "endDate":"14/06/2018",
                 "mainImageURL":"https://testffc.nimapinfotech.com/testdatajson/project5.jpg"
                 },
                 {
                 "Id":6,
                 "title":"Children Funding",
                 "shortDescription":"This foundation will help poor children",
                 "collectedValue":1200,
                 "totalValue":40000,
                 "startDate":"25/05/2018",
                 "endDate":"11/06/2018",
                 "mainImageURL":"https://testffc.nimapinfotech.com/testdatajson/project6.jpg"
                 },
                 {
                 "Id":7,
                 "title":"Smile Crowdfunding",
                 "shortDescription":"This foundation will bring smile on there faces",
                 "collectedValue":1000,
                 "totalValue":100000,
                 "startDate":"22/05/2018",
                 "endDate":"22/06/2018",
                 "mainImageURL":"https://testffc.nimapinfotech.com/testdatajson/project7.jpg"
                 }

             
             ]
    }
}